%YAML 1.1
%TAG !u! tag:unity3d.com,2011:
--- !u!136 &860428424
CapsuleCollider:
  m_ObjectHideFlags: 0
  m_CorrespondingSourceObject: {fileID: 0}
  m_PrefabInstance: {fileID: 0}
  m_PrefabAsset: {fileID: 0}
  m_GameObject: {fileID: 7046256466688222369}
  m_Material: {fileID: 0}
  m_IsTrigger: 0
  m_Enabled: 1
  m_Radius: 0.72
  m_Height: 2.6140313
  m_Direction: 1
  m_Center: {x: -0, y: 1.1489098, z: 0}
--- !u!95 &860428422
Animator:
  serializedVersion: 3
  m_ObjectHideFlags: 0
  m_CorrespondingSourceObject: {fileID: 0}
  m_PrefabInstance: {fileID: 0}
  m_PrefabAsset: {fileID: 0}
  m_GameObject: {fileID: 7046256466688222369}
  m_Enabled: 1
  m_Avatar: {fileID: 0}
  m_Controller: {fileID: 9100000, guid: 28fb3474bddfdc5429980685976f0196, type: 2}
  m_CullingMode: 0
  m_UpdateMode: 0
  m_ApplyRootMotion: 0
  m_LinearVelocityBlending: 0
  m_WarningMessage: 
  m_HasTransformHierarchy: 1
  m_AllowConstantClipSamplingOptimization: 1
  m_KeepAnimatorControllerStateOnDisable: 0
--- !u!114 &860428423
MonoBehaviour:
  m_ObjectHideFlags: 0
  m_CorrespondingSourceObject: {fileID: 0}
  m_PrefabInstance: {fileID: 0}
  m_PrefabAsset: {fileID: 0}
  m_GameObject: {fileID: 7046256466688222369}
  m_Enabled: 1
  m_EditorHideFlags: 0
  m_Script: {fileID: 11500000, guid: 3658efac1515e6e47b6162de2a911a20, type: 3}
  m_Name: 
  m_EditorClassIdentifier: 
  eventTouched:
    m_PersistentCalls:
      m_Calls: []
--- !u!64 &788183014
MeshCollider:
  m_ObjectHideFlags: 0
  m_CorrespondingSourceObject: {fileID: 0}
  m_PrefabInstance: {fileID: 0}
  m_PrefabAsset: {fileID: 0}
  m_GameObject: {fileID: 5608341009726066322}
  m_Material: {fileID: 0}
  m_IsTrigger: 0
  m_Enabled: 1
  serializedVersion: 4
  m_Convex: 0
  m_CookingOptions: 30
  m_Mesh: {fileID: 0}
--- !u!1001 &7856596884722096624
PrefabInstance:
  m_ObjectHideFlags: 0
  serializedVersion: 2
  m_Modification:
    m_TransformParent: {fileID: 0}
    m_Modifications:
    - target: {fileID: -8679921383154817045, guid: 16ce1fd72d727ef4eab1486d4fcad5b7, type: 3}
      propertyPath: m_RootOrder
      value: 0
      objectReference: {fileID: 0}
    - target: {fileID: -8679921383154817045, guid: 16ce1fd72d727ef4eab1486d4fcad5b7, type: 3}
      propertyPath: m_LocalScale.x
      value: 0.3
      objectReference: {fileID: 0}
    - target: {fileID: -8679921383154817045, guid: 16ce1fd72d727ef4eab1486d4fcad5b7, type: 3}
      propertyPath: m_LocalScale.y
      value: 0.3
      objectReference: {fileID: 0}
    - target: {fileID: -8679921383154817045, guid: 16ce1fd72d727ef4eab1486d4fcad5b7, type: 3}
      propertyPath: m_LocalScale.z
      value: 0.3
      objectReference: {fileID: 0}
    - target: {fileID: -8679921383154817045, guid: 16ce1fd72d727ef4eab1486d4fcad5b7, type: 3}
      propertyPath: m_LocalPosition.x
      value: 0
      objectReference: {fileID: 0}
    - target: {fileID: -8679921383154817045, guid: 16ce1fd72d727ef4eab1486d4fcad5b7, type: 3}
      propertyPath: m_LocalPosition.y
      value: 0
      objectReference: {fileID: 0}
    - target: {fileID: -8679921383154817045, guid: 16ce1fd72d727ef4eab1486d4fcad5b7, type: 3}
      propertyPath: m_LocalPosition.z
      value: 1.376
      objectReference: {fileID: 0}
    - target: {fileID: -8679921383154817045, guid: 16ce1fd72d727ef4eab1486d4fcad5b7, type: 3}
      propertyPath: m_LocalRotation.w
      value: 0
      objectReference: {fileID: 0}
    - target: {fileID: -8679921383154817045, guid: 16ce1fd72d727ef4eab1486d4fcad5b7, type: 3}
      propertyPath: m_LocalRotation.x
      value: 0
      objectReference: {fileID: 0}
    - target: {fileID: -8679921383154817045, guid: 16ce1fd72d727ef4eab1486d4fcad5b7, type: 3}
      propertyPath: m_LocalRotation.y
      value: 1
      objectReference: {fileID: 0}
    - target: {fileID: -8679921383154817045, guid: 16ce1fd72d727ef4eab1486d4fcad5b7, type: 3}
      propertyPath: m_LocalRotation.z
      value: 0
      objectReference: {fileID: 0}
    - target: {fileID: -8679921383154817045, guid: 16ce1fd72d727ef4eab1486d4fcad5b7, type: 3}
      propertyPath: m_LocalEulerAnglesHint.x
      value: 0
      objectReference: {fileID: 0}
    - target: {fileID: -8679921383154817045, guid: 16ce1fd72d727ef4eab1486d4fcad5b7, type: 3}
      propertyPath: m_LocalEulerAnglesHint.y
      value: 180
      objectReference: {fileID: 0}
    - target: {fileID: -8679921383154817045, guid: 16ce1fd72d727ef4eab1486d4fcad5b7, type: 3}
      propertyPath: m_LocalEulerAnglesHint.z
      value: 0
      objectReference: {fileID: 0}
    - target: {fileID: 919132149155446097, guid: 16ce1fd72d727ef4eab1486d4fcad5b7, type: 3}
      propertyPath: m_Name
      value: Charav5
      objectReference: {fileID: 0}
    - target: {fileID: 919132149155446097, guid: 16ce1fd72d727ef4eab1486d4fcad5b7, type: 3}
      propertyPath: m_IsActive
      value: 0
      objectReference: {fileID: 0}
    m_RemovedComponents: []
  m_SourcePrefab: {fileID: 100100000, guid: 16ce1fd72d727ef4eab1486d4fcad5b7, type: 3}
--- !u!1 &7046256466688222369 stripped
GameObject:
  m_CorrespondingSourceObject: {fileID: 919132149155446097, guid: 16ce1fd72d727ef4eab1486d4fcad5b7, type: 3}
  m_PrefabInstance: {fileID: 7856596884722096624}
  m_PrefabAsset: {fileID: 0}
--- !u!1 &5608341009726066322 stripped
GameObject:
  m_CorrespondingSourceObject: {fileID: -6855347992107985054, guid: 16ce1fd72d727ef4eab1486d4fcad5b7, type: 3}
  m_PrefabInstance: {fileID: 7856596884722096624}
  m_PrefabAsset: {fileID: 0}
